<?xml version="1.0" encoding="utf-8"?>
<!-- Generator: Adobe Illustrator 19.2.0, SVG Export Plug-In . SVG Version: 6.00 Build 0)  -->
<svg version="1.1" id="Layer_1" xmlns="http://www.w3.org/2000/svg" xmlns:xlink="http://www.w3.org/1999/xlink" x="0px" y="0px"
	 viewBox="0 0 127 158" style="enable-background:new 0 0 127 158;" xml:space="preserve">
<g>
	<path d="M0,52.3c0-10,0-20,0-30c0-1.8,0.6-3,2.2-3.9C17.6,9.2,34,2.9,51.8,0.7C65.6-1,79.2,0.4,92.5,4.4c11.2,3.3,21.9,8,31.9,14
		c1.5,0.9,2.1,1.9,2.1,3.7c0,19.4,0,38.7-0.1,58.1c-0.1,18.2-6.9,33.8-18.8,47.3c-11.8,13.3-26.4,22.8-42.5,30.1
		c-1.2,0.5-2.2,0.6-3.5,0c-14.8-7-28.4-15.8-39.9-27.7c-11.2-11.6-19-25-21.1-41.3c-0.4-2.8-0.6-5.7-0.6-8.5C0,70.9,0.1,61.6,0,52.3
		C0.1,52.3,0,52.3,0,52.3z M28.4,59.2c0.9,0.9,1.3,1.5,1.8,2c4.6,4.5,9.1,8.9,13.7,13.3c1.3,1.3,1.8,2.5,1.5,4.3
		c-1.2,6.3-2.2,12.7-3.3,19c-0.1,0.8-0.2,1.6-0.3,2.7c1.1-0.5,1.9-0.9,2.6-1.3c5.6-2.9,11.2-5.8,16.7-8.9c1.6-0.9,2.9-0.9,4.6,0
		c5.5,3,11,5.9,16.6,8.8c0.8,0.4,1.7,0.8,2.9,1.4c-0.1-1-0.1-1.7-0.2-2.3c-1.1-6.7-2.3-13.4-3.5-20.1c-0.2-1.3,0-2.2,1-3.1
		c5-4.8,9.9-9.6,14.9-14.4c0.4-0.4,0.7-0.8,1.2-1.5c-1-0.2-1.6-0.4-2.2-0.5c-6.4-0.9-12.8-1.9-19.3-2.8c-1.9-0.2-3-1-3.8-2.8
		c-2.7-5.8-5.7-11.5-8.5-17.3c-0.3-0.6-0.7-1.2-1.3-2.1c-0.5,0.9-0.9,1.5-1.2,2.1c-2.9,5.8-5.8,11.6-8.6,17.5
		c-0.8,1.6-1.8,2.3-3.6,2.6c-6.1,0.8-12.1,1.7-18.2,2.6C30.9,58.7,29.9,58.9,28.4,59.2z"/>
</g>
</svg>
