<?xml version="1.0" encoding="utf-8"?>
<!-- Generator: Adobe Illustrator 19.2.0, SVG Export Plug-In . SVG Version: 6.00 Build 0)  -->
<svg version="1.1" id="Layer_1" xmlns="http://www.w3.org/2000/svg" xmlns:xlink="http://www.w3.org/1999/xlink" x="0px" y="0px"
	 viewBox="0 0 135 47" style="enable-background:new 0 0 135 47;" xml:space="preserve">
<style type="text/css">
	.st0{fill:#010101;}
</style>
<g>
	<g>
		<path class="st0" d="M80.5-0.1c5.4,0,10.8,0.5,16.2,1.4c7.2,1.2,14.1,3.1,21.1,5.1c2.9,0.8,5.7,1.8,8.5,2.6
			c1.4,0.4,2.8,0.6,4.3,0.6c0.2,0,0.5,0,0.7,0.1c0.8,0.1,1,0.4,1,1.1c0,0.7-0.2,0.9-1,1c-1.1,0.2-1.1,0.2-1.1,1.2
			c0,2.1,0.5,4.2,0.9,6.3c0.3,1.3,0.6,2.6,0.7,4c0.1,0.6,0.3,1.2,0.8,1.6c1.5,1.5,2.2,3.3,2.5,5.4c0.2,1.4,0.1,2.7-0.3,4
			c-0.3,0.9-0.9,1.5-1.7,1.7c-0.7,0.2-1.2,0.6-1.5,1.3c-0.3,0.8-0.9,1.1-1.8,1.3c-2.3,0.4-4.5,0.8-6.8,1.1c-0.2,0-0.4,0-0.6,0
			c-0.4,0-0.5-0.2-0.6-0.5c0-0.2,0-0.3,0-0.5c0-0.3-0.1-0.5-0.4-0.5c-0.3,0-0.5,0.2-0.5,0.4c0,0.2-0.1,0.3-0.1,0.5
			c-1,4.6-4.6,7.2-9.2,7.4c-2.1,0.1-4.2-0.2-6.1-1.3c-1.5-0.8-2.6-2-3.3-3.6c-0.2-0.5-0.5-0.6-1-0.6c-3.9,0-7.8,0-11.8,0
			c-6.4,0-12.9,0.1-19.3,0C60.1,41,50,41,39.9,41c-1,0-2-0.1-3-0.2c-1.1-0.1-2,0.1-2.6,1.1c-2.5,3.8-6.2,4.9-10.5,4.4
			c-2.5-0.2-4.7-1.2-6.4-3.2c-0.4-0.5-0.8-1.1-1.1-1.7c-0.2-0.4-0.5-0.6-1-0.6c-3.2-0.2-6.3-0.4-9.5-0.7C5,40.1,4.2,40,3.5,39.7
			c-2-0.6-2.8-1.6-3-3.7c-0.2-1.5-0.1-3,0.2-4.5c0.4-2.4,1-4.7,2-6.9C3.4,23,4.5,21.9,6,21c3.6-2,7.4-3.5,11.3-4.7
			c3.6-1.1,7.2-1.9,10.9-2.4c2.5-0.4,4.8-1.4,7.1-2.5C42.6,8.1,50,5.1,57.8,2.8c4.3-1.2,8.6-2,13.1-2.5c2.5-0.3,5.1-0.4,7.6-0.4
			C79.2-0.1,79.8-0.2,80.5-0.1z"/>
	</g>
</g>
</svg>
