<?xml version="1.0" encoding="utf-8"?>
<!-- Generator: Adobe Illustrator 19.2.0, SVG Export Plug-In . SVG Version: 6.00 Build 0)  -->
<svg version="1.1" id="Layer_1" xmlns="http://www.w3.org/2000/svg" xmlns:xlink="http://www.w3.org/1999/xlink" x="0px" y="0px"
	 viewBox="0 0 127 158" style="enable-background:new 0 0 127 158;" xml:space="preserve">
<style type="text/css">
	.st0{fill:#FFFFFF;}
	.st1{fill:#ED202A;}
</style>
<g>
	<g>
		<path class="st0" d="M35.9,111.3c0-4.3,0-8.5,0-12.8c0-0.8,0.2-1.3,0.9-1.7c6.6-3.9,13.6-6.6,21.1-7.5c5.9-0.7,11.7-0.1,17.3,1.6
			c4.8,1.4,9.3,3.4,13.6,6c0.6,0.4,0.9,0.8,0.9,1.6c0,8.3,0,16.5,0,24.8c0,7.8-2.9,14.4-8,20.2c-5,5.7-11.2,9.7-18.1,12.8
			c-0.5,0.2-0.9,0.3-1.5,0c-6.3-3-12.1-6.7-17-11.8c-4.8-4.9-8.1-10.7-9-17.6c-0.2-1.2-0.2-2.4-0.2-3.6
			C35.9,119.2,35.9,115.3,35.9,111.3C35.9,111.3,35.9,111.3,35.9,111.3z"/>
	</g>
	<g>
		<path class="st1" d="M55.9,121.2c3.3-1.4,10.9-1.5,15.2,0.1c3,1,6.8,3.2,7.1,6.3c0.2,1.9,0.2,3.8,0.1,5.7
			c-0.1,1.2-1.2,2.1-2.4,2.3c-0.5,0.1-0.9,0.1-1.4,0.1c-7.4,0-14.7,0-22.1,0c-2.8,0-3.9-1.1-3.9-3.9c0-0.8,0-1.6,0-2.4
			c0-2.1,0.6-3.8,2.2-5.3C52.2,122.7,53.8,121.7,55.9,121.2z"/>
		<path class="st1" d="M71.5,107.4c-0.2,2.9-1,5.6-2.9,7.9c-2.9,3.6-7.3,3.6-10.2,0.1c-2.3-2.9-3.4-6.3-2.8-10
			c0.7-4.2,4.6-6.9,9-6.4C68.6,99.5,71.7,103.3,71.5,107.4z"/>
	</g>
</g>
<g>
	<path class="st0" d="M63.3,3.4C70,3.8,75.9,4.3,81.8,5.7c10.7,2.5,20.3,7.1,29.1,13.6c2.8,2.1,5.3,4.6,7.9,6.9
		c0.9,0.8,0.9,1.6,0,2.4c-3.4,3.4-6.9,6.9-10.3,10.4c-0.8,0.8-1.5,0.8-2.3,0c-4.7-4.6-9.9-8.5-15.9-11.3c-3.3-1.5-6.8-2.7-10.3-3.8
		c-5.5-1.7-11.2-2.4-16.9-2.3c-4.3,0.1-8.6,0.7-12.8,1.7c-9,2-17,6-24.2,11.8c-1.5,1.2-3,2.6-4.4,4c-0.8,0.8-1.5,0.8-2.3,0
		c-3.4-3.5-6.9-6.9-10.4-10.4c-0.9-0.9-0.7-1.5,0.1-2.3c4.6-4.5,9.5-8.4,15-11.6c5.1-3,10.3-5.5,16-7.1c4.2-1.1,8.5-2.1,12.8-2.9
		C56.6,3.9,60.3,3.7,63.3,3.4z"/>
	<path class="st0" d="M64.1,29.2c6.9,0.4,13.5,1.7,19.8,4.2c6.4,2.6,11.9,6.4,16.8,11.1c0.9,0.9,0.6,1.6,0,2.3
		c-3.3,3.3-6.6,6.6-9.9,9.9c-1,1-1.7,1-2.7,0c-4-4.1-8.9-6.8-14.3-8.4c-4.5-1.4-9.3-1.8-14-1.2c-7.6,1-14.3,4-19.8,9.4
		c-1.2,1.2-1.6,1.2-2.8,0c-3.3-3.2-6.5-6.4-9.7-9.7c-0.9-0.9-0.9-1.8,0.3-2.8c3.2-2.5,6.3-5.1,9.6-7.3c4.5-3,9.6-4.9,14.9-6
		C56.2,30,60.2,29.7,64.1,29.2z"/>
	<path class="st0" d="M63.8,55.9c5.8,0.2,10.6,2.5,14.8,6.2c0.9,0.8,1,1.6,0,2.5c-4.3,4.1-8.6,8.3-12.9,12.4c-1.1,1-2.8,0.9-3.9-0.2
		c-4.3-4.2-8.5-8.4-12.8-12.5c-0.7-0.7-0.7-1.3,0-2c2.9-2.5,5.9-4.7,9.7-5.5C60.5,56.5,62.2,56.2,63.8,55.9z"/>
</g>
</svg>
