<?xml version="1.0" encoding="utf-8"?>
<!-- Generator: Adobe Illustrator 19.2.0, SVG Export Plug-In . SVG Version: 6.00 Build 0)  -->
<svg version="1.1" id="Layer_1" xmlns="http://www.w3.org/2000/svg" xmlns:xlink="http://www.w3.org/1999/xlink" x="0px" y="0px"
	 viewBox="0 0 127 158" style="enable-background:new 0 0 127 158;" xml:space="preserve">
<style type="text/css">
	.st0{fill:#FFFFFF;}
</style>
<g>
	<g>
		<path d="M0.5,53.3c0-10,0-20,0-30c0-1.8,0.6-3,2.2-3.9c15.4-9,31.7-15.3,49.5-17.5c13.8-1.7,27.3-0.3,40.6,3.7
			c11.2,3.3,21.8,8,31.8,14c1.5,0.9,2.1,1.9,2.1,3.7c0,19.3,0,38.6-0.1,57.9c-0.1,18.1-6.9,33.7-18.8,47.2
			c-11.8,13.3-26.3,22.7-42.3,30c-1.2,0.5-2.2,0.6-3.4,0c-14.8-7-28.3-15.8-39.8-27.6C11.1,119.1,3.3,105.8,1.2,89.6
			c-0.4-2.8-0.6-5.7-0.6-8.5C0.5,71.8,0.6,62.5,0.5,53.3C0.6,53.3,0.6,53.3,0.5,53.3z"/>
	</g>
	<g>
		<path class="st0" d="M47.4,76.3c7.6-3.2,25.5-3.4,35.6,0.2c7.1,2.4,15.9,7.4,16.6,14.7c0.4,4.4,0.4,8.9,0.2,13.3
			c-0.1,2.7-2.8,5-5.6,5.4c-1.1,0.2-2.2,0.2-3.3,0.2c-17.2,0-34.4,0-51.6,0c-6.6,0-9-2.5-9-9.1c0-1.9,0-3.8,0-5.7
			c0-4.8,1.5-8.9,5.1-12.3C38.7,79.8,42.6,77.7,47.4,76.3z"/>
		<path class="st0" d="M83.8,44.2C83.4,51,81.4,57.3,77,62.7C70.4,71,60,71.2,53.3,62.9c-5.5-6.8-8-14.7-6.5-23.5
			c1.7-9.9,10.7-16.1,21.1-14.9C77.1,25.6,84.3,34.5,83.8,44.2z"/>
	</g>
</g>
</svg>
