<?xml version="1.0" encoding="utf-8"?>
<!-- Generator: Adobe Illustrator 19.2.0, SVG Export Plug-In . SVG Version: 6.00 Build 0)  -->
<svg version="1.1" id="Layer_1" xmlns="http://www.w3.org/2000/svg" xmlns:xlink="http://www.w3.org/1999/xlink" x="0px" y="0px"
	 viewBox="0 0 400 400" style="enable-background:new 0 0 400 400;" xml:space="preserve">
<style type="text/css">
	.st0{fill:#DC0321;stroke:#FFFFFF;stroke-width:2.25;stroke-miterlimit:10;}
	.st1{fill:none;}
	.st2{fill:#FFFFFF;}
	.st3{fill:none;stroke:#FFFFFF;stroke-width:3;stroke-miterlimit:10;}
</style>
<g id="APP_BADGE">
	<g>
		<path class="st0" d="M145.7,24.8h106.1c35.2,0,52.8,0,71.7,6c20.7,7.5,37,23.8,44.5,44.5c6,18.9,6,36.5,6,71.7v106
			c0,35.2,0,52.8-6,71.7c-7.5,20.7-23.8,37-44.5,44.5c-18.9,6-36.5,6-71.7,6H145.7c-35.2,0-52.8,0-71.7-6
			c-20.7-7.5-37-23.8-44.5-44.5c-6-18.9-6-36.5-6-71.7V147c0-35.2,0-52.8,6-71.7C37,54.6,53.3,38.3,74,30.8
			C92.9,24.8,110.5,24.8,145.7,24.8L145.7,24.8"/>
	</g>
</g>
<g id="DRIVER">
	<g>
		<rect x="40" y="301.8" class="st1" width="318" height="73.7"/>
		<path class="st2" d="M119.1,329.9l-1.3,8.4H112l6.2-36.5h7.6l6.1,36.5h-5.8l-1.3-8.4H119.1z M122,310.2l-2,14.4h4.1L122,310.2z"/>
		<path class="st2" d="M154.2,338.8c-2.4,0-4.5-0.8-6.2-2.5s-2.5-3.8-2.5-6.2v-19.9c0-2.4,0.9-4.5,2.6-6.2c1.7-1.7,3.8-2.5,6.2-2.5
			s4.5,0.9,6.2,2.6s2.5,3.8,2.5,6.2v4.2h-5.7V310c0-0.9-0.3-1.6-0.9-2.2c-0.6-0.6-1.4-0.9-2.2-0.9c-0.9,0-1.6,0.3-2.2,0.9
			c-0.6,0.6-0.9,1.4-0.9,2.2v20c0,0.9,0.3,1.6,0.9,2.2c0.6,0.6,1.4,0.9,2.2,0.9c0.9,0,1.6-0.3,2.2-0.9s0.9-1.4,0.9-2.2v-5h5.7v5.1
			c0,2.4-0.9,4.5-2.6,6.2C158.6,337.9,156.6,338.8,154.2,338.8z"/>
		<path class="st2" d="M185.8,338.8c-2.4,0-4.5-0.8-6.2-2.5s-2.5-3.8-2.5-6.2v-19.9c0-2.4,0.9-4.5,2.6-6.2c1.7-1.7,3.8-2.5,6.2-2.5
			s4.5,0.9,6.2,2.6s2.5,3.8,2.5,6.2v4.2h-5.7V310c0-0.9-0.3-1.6-0.9-2.2c-0.6-0.6-1.4-0.9-2.2-0.9c-0.9,0-1.6,0.3-2.2,0.9
			c-0.6,0.6-0.9,1.4-0.9,2.2v20c0,0.9,0.3,1.6,0.9,2.2c0.6,0.6,1.4,0.9,2.2,0.9c0.9,0,1.6-0.3,2.2-0.9s0.9-1.4,0.9-2.2v-5h5.7v5.1
			c0,2.4-0.9,4.5-2.6,6.2C190.2,337.9,188.2,338.8,185.8,338.8z"/>
		<path class="st2" d="M208.8,338.3v-36.5h15.7v5.5h-10.2v10h7.4v5.5h-7.4v10h10.2v5.5H208.8z"/>
		<path class="st2" d="M246.6,301.8c2.7,0,4.8,0.8,6.4,2.5c1.5,1.6,2.2,3.7,2.2,6.2v5.3c0,2.4-0.8,4.5-2.5,6.2s-3.7,2.6-6.1,2.6
			h-3.2v13.7H238v-36.5L246.6,301.8L246.6,301.8z M249.9,310.6c0-1-0.3-1.7-0.9-2.3s-1.3-0.9-2.3-0.9h-3.3v11.7h3.3
			c0.9,0,1.6-0.3,2.2-0.9s0.9-1.4,0.9-2.2v-5.4H249.9z"/>
		<path class="st2" d="M274.6,307.3h-5.9v-5.5H286v5.5h-5.8v30.9h-5.5v-30.9H274.6z"/>
	</g>
	<g>
		<line class="st3" x1="109" y1="289.5" x2="286" y2="289.5"/>
	</g>
	<g>
		<path class="st2" d="M176.9,272c-26.9-27-53.3-53.5-79-79.3c9-8.9,18.6-18.4,28.8-28.5c15.1,15.4,31.3,32,48.6,49.6
			c37.7-38.4,74-75.5,109.9-112c11,11.1,20.7,21,29.5,30C269.7,177.5,223.4,224.7,176.9,272z"/>
	</g>
</g>
</svg>
